; Engine configuration file.
; It's best edited using the editor UI and not directly,
; since the parameters that go here are not all obvious.
;
; Format:
;   [section] ; section goes between []
;   param=value ; assign values to parameters

config_version=5

[application]

config/name="Sky Collector"
run/main_scene="res://scenes/World.tscn"
config/features=PackedStringArray("4.1", "GL Compatibility")
config/icon="res://icon.svg"

[display]

window/size/viewport_width=720
window/size/viewport_height=480
window/size/resizable=false

[input]

player_left={
"deadzone": 0.5,
"events": [Object(InputEventKey,"resource_local_to_scene":false,"resource_name":"","device":-1,"window_id":0,"alt_pressed":false,"shift_pressed":false,"ctrl_pressed":false,"meta_pressed":false,"pressed":false,"keycode":0,"physical_keycode":65,"key_label":0,"unicode":97,"echo":false,"script":null)
, Object(InputEventKey,"resource_local_to_scene":false,"resource_name":"","device":-1,"window_id":0,"alt_pressed":false,"shift_pressed":false,"ctrl_pressed":false,"meta_pressed":false,"pressed":false,"keycode":0,"physical_keycode":4194319,"key_label":0,"unicode":0,"echo":false,"script":null)
, Object(InputEventJoypadMotion,"resource_local_to_scene":false,"resource_name":"","device":-1,"axis":0,"axis_value":-1.0,"script":null)
]
}
player_right={
"deadzone": 0.5,
"events": [Object(InputEventKey,"resource_local_to_scene":false,"resource_name":"","device":-1,"window_id":0,"alt_pressed":false,"shift_pressed":false,"ctrl_pressed":false,"meta_pressed":false,"pressed":false,"keycode":0,"physical_keycode":68,"key_label":0,"unicode":100,"echo":false,"script":null)
, Object(InputEventKey,"resource_local_to_scene":false,"resource_name":"","device":-1,"window_id":0,"alt_pressed":false,"shift_pressed":false,"ctrl_pressed":false,"meta_pressed":false,"pressed":false,"keycode":0,"physical_keycode":4194321,"key_label":0,"unicode":0,"echo":false,"script":null)
, Object(InputEventJoypadMotion,"resource_local_to_scene":false,"resource_name":"","device":-1,"axis":0,"axis_value":1.0,"script":null)
]
}

[rendering]

renderer/rendering_method="gl_compatibility"
renderer/rendering_method.mobile="gl_compatibility"
